\contentsline {section}{\numberline {1}Sample preparation}{2}
\contentsline {section}{\numberline {2}Correction of gold nanorod spectra}{3}
\contentsline {section}{\numberline {3}Size of the confocal volume}{3}
\contentsline {section}{\numberline {4}Saturation of IRDye800CW}{4}
\contentsline {section}{\numberline {5}Numerical simulations}{6}
\contentsline {section}{\numberline {6}Calculation of nanorod temperature increase}{8}
