<?xml version="1.0" encoding="UTF-8" standalone="no"?>
<svg
   xmlns:dc="http://purl.org/dc/elements/1.1/"
   xmlns:cc="http://creativecommons.org/ns#"
   xmlns:rdf="http://www.w3.org/1999/02/22-rdf-syntax-ns#"
   xmlns:svg="http://www.w3.org/2000/svg"
   xmlns="http://www.w3.org/2000/svg"
   xmlns:sodipodi="http://sodipodi.sourceforge.net/DTD/sodipodi-0.dtd"
   xmlns:inkscape="http://www.inkscape.org/namespaces/inkscape"
   style="fill-opacity:1; color-rendering:auto; color-interpolation:auto; stroke:black; text-rendering:auto; stroke-linecap:square; stroke-miterlimit:10; stroke-opacity:1; shape-rendering:auto; fill:black; stroke-dasharray:none; font-weight:normal; stroke-width:1; font-family:'Dialog'; font-style:normal; stroke-linejoin:miter; font-size:12px; stroke-dashoffset:0; image-rendering:auto;"
   width="560"
   height="420"
   id="svg9613"
   version="1.1"
   inkscape:version="0.91 r13725"
   sodipodi:docname="dye_and_NR_spectra_matlab.svg">
  <metadata
     id="metadata9867">
    <rdf:RDF>
      <cc:Work
         rdf:about="">
        <dc:format>image/svg+xml</dc:format>
        <dc:type
           rdf:resource="http://purl.org/dc/dcmitype/StillImage" />
      </cc:Work>
    </rdf:RDF>
  </metadata>
  <sodipodi:namedview
     pagecolor="#ffffff"
     bordercolor="#666666"
     borderopacity="1"
     objecttolerance="10"
     gridtolerance="10"
     guidetolerance="10"
     inkscape:pageopacity="0"
     inkscape:pageshadow="2"
     inkscape:window-width="1680"
     inkscape:window-height="988"
     id="namedview9865"
     showgrid="false"
     inkscape:zoom="1.5893067"
     inkscape:cx="278.58332"
     inkscape:cy="267.22157"
     inkscape:window-x="-8"
     inkscape:window-y="-8"
     inkscape:window-maximized="1"
     inkscape:current-layer="drawing" />
  <!--Generated by the Batik Graphics2D SVG Generator-->
  <defs
     id="genericDefs" />
  <g
     id="g9616">
    <defs
       id="defs1">
      <clipPath
         clipPathUnits="userSpaceOnUse"
         id="clipPath1">
        <path
           d="M0 0 L560 0 L560 420 L0 420 L0 0 Z"
           id="path9620" />
      </clipPath>
      <font
         horiz-adv-x="75.0"
         id="font1">
        <font-face
           ascent="100.53711"
           descent="21.972656"
           units-per-em="100"
           style="font-style:normal; font-family:sans-serif; font-weight:normal;"
           id="font-face9623" />
        <missing-glyph
           horiz-adv-x="75.0"
           d="M12.5 0 L12.5 62.5 L62.5 62.5 L62.5 0 L12.5 0 ZM14.0625 1.5625 L60.9375 1.5625 L60.9375 60.9375 L14.0625 60.9375 L14.0625 1.5625 Z"
           id="missing-glyph9625" />
        <glyph
           unicode="0"
           horiz-adv-x="55.615234"
           d="M4.1562 35.2969 Q4.1562 48 6.7656 55.7422 Q9.375 63.4844 14.5234 67.6797 Q19.6719 71.875 27.4844 71.875 Q33.25 71.875 37.5938 69.5547 Q41.9375 67.2344 44.7734 62.8672 Q47.6094 58.5 49.2188 52.2266 Q50.8281 45.9531 50.8281 35.2969 Q50.8281 22.7031 48.2422 14.9688 Q45.6562 7.2344 40.5078 3.0078 Q35.3594 -1.2188 27.4844 -1.2188 Q17.1406 -1.2188 11.2344 6.2031 Q4.1562 15.1406 4.1562 35.2969 ZM13.1875 35.2969 Q13.1875 17.6719 17.3125 11.8359 Q21.4375 6 27.4844 6 Q33.5469 6 37.6719 11.8594 Q41.7969 17.7188 41.7969 35.2969 Q41.7969 52.9844 37.6719 58.7891 Q33.5469 64.5938 27.3906 64.5938 Q21.3438 64.5938 17.7188 59.4688 Q13.1875 52.9375 13.1875 35.2969 Z"
           id="glyph9627" />
        <glyph
           unicode="5"
           horiz-adv-x="55.615234"
           d="M4.1562 18.75 L13.375 19.5312 Q14.4062 12.7969 18.1406 9.3984 Q21.875 6 27.1562 6 Q33.5 6 37.8906 10.7891 Q42.2812 15.5781 42.2812 23.4844 Q42.2812 31 38.0625 35.3516 Q33.8438 39.7031 27 39.7031 Q22.75 39.7031 19.3359 37.7734 Q15.9219 35.8438 13.9688 32.7656 L5.7188 33.8438 L12.6406 70.6094 L48.25 70.6094 L48.25 62.2031 L19.6719 62.2031 L15.8281 42.9688 Q22.2656 47.4688 29.3438 47.4688 Q38.7188 47.4688 45.1641 40.9688 Q51.6094 34.4688 51.6094 24.2656 Q51.6094 14.5469 45.9531 7.4688 Q39.0625 -1.2188 27.1562 -1.2188 Q17.3906 -1.2188 11.2109 4.25 Q5.0312 9.7188 4.1562 18.75 Z"
           id="glyph9629" />
        <glyph
           unicode="6"
           horiz-adv-x="55.615234"
           d="M49.75 54.0469 L41.0156 53.375 Q39.8438 58.5469 37.7031 60.8906 Q34.125 64.6562 28.9062 64.6562 Q24.7031 64.6562 21.5312 62.3125 Q17.3906 59.2812 14.9922 53.4688 Q12.5938 47.6562 12.5 36.9219 Q15.6719 41.75 20.2656 44.0938 Q24.8594 46.4375 29.8906 46.4375 Q38.6719 46.4375 44.8516 39.9688 Q51.0312 33.5 51.0312 23.25 Q51.0312 16.5 48.125 10.7188 Q45.2188 4.9375 40.1406 1.8594 Q35.0625 -1.2188 28.6094 -1.2188 Q17.625 -1.2188 10.6953 6.8594 Q3.7656 14.9375 3.7656 33.5 Q3.7656 54.25 11.4219 63.6719 Q18.1094 71.875 29.4375 71.875 Q37.8906 71.875 43.2891 67.1406 Q48.6875 62.4062 49.75 54.0469 ZM13.875 23.1875 Q13.875 18.6562 15.7969 14.5078 Q17.7188 10.3594 21.1875 8.1797 Q24.6562 6 28.4688 6 Q34.0312 6 38.0391 10.4922 Q42.0469 14.9844 42.0469 22.7031 Q42.0469 30.125 38.0859 34.3984 Q34.125 38.6719 28.125 38.6719 Q22.1719 38.6719 18.0234 34.3984 Q13.875 30.125 13.875 23.1875 Z"
           id="glyph9631" />
        <glyph
           unicode="7"
           horiz-adv-x="55.615234"
           d="M4.7344 62.2031 L4.7344 70.6562 L51.0781 70.6562 L51.0781 63.8125 Q44.2344 56.5469 37.5234 44.4844 Q30.8125 32.4219 27.1562 19.6719 Q24.5156 10.6875 23.7812 0 L14.75 0 Q14.8906 8.4531 18.0625 20.4141 Q21.2344 32.375 27.1719 43.4844 Q33.1094 54.5938 39.7969 62.2031 L4.7344 62.2031 Z"
           id="glyph9633" />
        <glyph
           unicode="8"
           horiz-adv-x="55.615234"
           d="M17.6719 38.8125 Q12.2031 40.8281 9.5703 44.5391 Q6.9375 48.25 6.9375 53.4219 Q6.9375 61.2344 12.5547 66.5547 Q18.1719 71.875 27.4844 71.875 Q36.8594 71.875 42.5781 66.4297 Q48.2969 60.9844 48.2969 53.1719 Q48.2969 48.1875 45.6797 44.5078 Q43.0625 40.8281 37.75 38.8125 Q44.3438 36.6719 47.7812 31.8828 Q51.2188 27.0938 51.2188 20.4531 Q51.2188 11.2812 44.7266 5.0312 Q38.2344 -1.2188 27.6406 -1.2188 Q17.0469 -1.2188 10.5469 5.0547 Q4.0469 11.3281 4.0469 20.7031 Q4.0469 27.6875 7.5938 32.3984 Q11.1406 37.1094 17.6719 38.8125 ZM15.9219 53.7188 Q15.9219 48.6406 19.1953 45.4141 Q22.4688 42.1875 27.6875 42.1875 Q32.7656 42.1875 36.0156 45.3828 Q39.2656 48.5781 39.2656 53.2188 Q39.2656 58.0625 35.9141 61.3594 Q32.5625 64.6562 27.5938 64.6562 Q22.5625 64.6562 19.2422 61.4297 Q15.9219 58.2031 15.9219 53.7188 ZM13.0938 20.6562 Q13.0938 16.8906 14.875 13.375 Q16.6562 9.8594 20.1719 7.9297 Q23.6875 6 27.7344 6 Q34.0312 6 38.1328 10.0547 Q42.2344 14.1094 42.2344 20.3594 Q42.2344 26.7031 38.0156 30.8594 Q33.7969 35.0156 27.4375 35.0156 Q21.2344 35.0156 17.1641 30.9141 Q13.0938 26.8125 13.0938 20.6562 Z"
           id="glyph9635" />
        <glyph
           unicode="9"
           horiz-adv-x="55.615234"
           d="M5.4688 16.5469 L13.9219 17.3281 Q14.9844 11.375 18.0156 8.6875 Q21.0469 6 25.7812 6 Q29.8281 6 32.8828 7.8594 Q35.9375 9.7188 37.8906 12.8203 Q39.8438 15.9219 41.1641 21.1953 Q42.4844 26.4688 42.4844 31.9375 Q42.4844 32.5156 42.4375 33.6875 Q39.7969 29.5 35.2344 26.8828 Q30.6719 24.2656 25.3438 24.2656 Q16.4531 24.2656 10.3047 30.7109 Q4.1562 37.1562 4.1562 47.7031 Q4.1562 58.5938 10.5781 65.2344 Q17 71.875 26.6562 71.875 Q33.6406 71.875 39.4297 68.1172 Q45.2188 64.3594 48.2188 57.3984 Q51.2188 50.4375 51.2188 37.25 Q51.2188 23.5312 48.2422 15.4062 Q45.2656 7.2812 39.3828 3.0312 Q33.5 -1.2188 25.5938 -1.2188 Q17.1875 -1.2188 11.8672 3.4453 Q6.5469 8.1094 5.4688 16.5469 ZM41.4531 48.1406 Q41.4531 55.7188 37.4297 60.1562 Q33.4062 64.5938 27.7344 64.5938 Q21.875 64.5938 17.5312 59.8125 Q13.1875 55.0312 13.1875 47.4062 Q13.1875 40.5781 17.3125 36.3047 Q21.4375 32.0312 27.4844 32.0312 Q33.5938 32.0312 37.5234 36.3047 Q41.4531 40.5781 41.4531 48.1406 Z"
           id="glyph9637" />
        <glyph
           unicode=")"
           horiz-adv-x="33.30078"
           d="M12.3594 -21.0469 L6.0625 -21.0469 Q20.6562 2.3906 20.6562 25.875 Q20.6562 35.0625 18.5625 44.0938 Q16.8906 51.4219 13.9219 58.1562 Q12.0156 62.5469 6.0625 72.7969 L12.3594 72.7969 Q21.5312 60.5469 25.9219 48.1875 Q29.6875 37.5469 29.6875 25.9219 Q29.6875 12.75 24.6328 0.4453 Q19.5781 -11.8594 12.3594 -21.0469 Z"
           id="glyph9639" />
        <glyph
           unicode="m"
           horiz-adv-x="83.30078"
           d="M6.5938 0 L6.5938 51.8594 L14.4531 51.8594 L14.4531 44.5781 Q16.8906 48.3906 20.9453 50.7109 Q25 53.0312 30.1719 53.0312 Q35.9375 53.0312 39.625 50.6406 Q43.3125 48.25 44.8281 43.9531 Q50.9844 53.0312 60.8438 53.0312 Q68.5625 53.0312 72.7109 48.7578 Q76.8594 44.4844 76.8594 35.5938 L76.8594 0 L68.1094 0 L68.1094 32.6719 Q68.1094 37.9375 67.2578 40.2578 Q66.4062 42.5781 64.1641 43.9922 Q61.9219 45.4062 58.8906 45.4062 Q53.4219 45.4062 49.8047 41.7734 Q46.1875 38.1406 46.1875 30.125 L46.1875 0 L37.4062 0 L37.4062 33.6875 Q37.4062 39.5469 35.2578 42.4766 Q33.1094 45.4062 28.2188 45.4062 Q24.5156 45.4062 21.3672 43.4531 Q18.2188 41.5 16.7969 37.7422 Q15.375 33.9844 15.375 26.9062 L15.375 0 L6.5938 0 Z"
           id="glyph9641" />
        <glyph
           unicode="("
           horiz-adv-x="33.30078"
           d="M23.3906 -21.0469 Q16.1094 -11.8594 11.0859 0.4453 Q6.0625 12.75 6.0625 25.9219 Q6.0625 37.5469 9.8125 48.1875 Q14.2031 60.5469 23.3906 72.7969 L29.6875 72.7969 Q23.7812 62.6406 21.875 58.2969 Q18.8906 51.5625 17.1875 44.2344 Q15.0938 35.1094 15.0938 25.875 Q15.0938 2.3906 29.6875 -21.0469 L23.3906 -21.0469 Z"
           id="glyph9643" />
        <glyph
           unicode=" "
           horiz-adv-x="27.783203"
           d=""
           id="glyph9645" />
        <glyph
           unicode="h"
           horiz-adv-x="55.615234"
           d="M6.5938 0 L6.5938 71.5781 L15.375 71.5781 L15.375 45.9062 Q21.5312 53.0312 30.9062 53.0312 Q36.6719 53.0312 40.9219 50.7578 Q45.1719 48.4844 47 44.4844 Q48.8281 40.4844 48.8281 32.8594 L48.8281 0 L40.0469 0 L40.0469 32.8594 Q40.0469 39.4531 37.1875 42.4531 Q34.3281 45.4531 29.1094 45.4531 Q25.2031 45.4531 21.7578 43.4297 Q18.3125 41.4062 16.8438 37.9375 Q15.375 34.4688 15.375 28.375 L15.375 0 L6.5938 0 Z"
           id="glyph9647" />
        <glyph
           unicode="t"
           horiz-adv-x="27.783203"
           d="M25.7812 7.8594 L27.0469 0.0938 Q23.3438 -0.6875 20.4062 -0.6875 Q15.625 -0.6875 12.9922 0.8281 Q10.3594 2.3438 9.2812 4.8125 Q8.2031 7.2812 8.2031 15.1875 L8.2031 45.0156 L1.7656 45.0156 L1.7656 51.8594 L8.2031 51.8594 L8.2031 64.7031 L16.9375 69.9688 L16.9375 51.8594 L25.7812 51.8594 L25.7812 45.0156 L16.9375 45.0156 L16.9375 14.7031 Q16.9375 10.9375 17.4062 9.8672 Q17.875 8.7969 18.9219 8.1562 Q19.9688 7.5156 21.9219 7.5156 Q23.3906 7.5156 25.7812 7.8594 Z"
           id="glyph9649" />
        <glyph
           unicode="g"
           horiz-adv-x="55.615234"
           d="M4.9844 -4.2969 L13.5312 -5.5625 Q14.0625 -9.5156 16.5 -11.3281 Q19.7812 -13.7656 25.4375 -13.7656 Q31.5469 -13.7656 34.8672 -11.3281 Q38.1875 -8.8906 39.3594 -4.5 Q40.0469 -1.8125 39.9844 6.7812 Q34.2344 0 25.6406 0 Q14.9375 0 9.0781 7.7188 Q3.2188 15.4375 3.2188 26.2188 Q3.2188 33.6406 5.9062 39.9141 Q8.5938 46.1875 13.6953 49.6094 Q18.7969 53.0312 25.6875 53.0312 Q34.8594 53.0312 40.8281 45.6094 L40.8281 51.8594 L48.9219 51.8594 L48.9219 7.0312 Q48.9219 -5.0781 46.4609 -10.1328 Q44 -15.1875 38.6484 -18.1172 Q33.2969 -21.0469 25.4844 -21.0469 Q16.2188 -21.0469 10.5 -16.875 Q4.7812 -12.7031 4.9844 -4.2969 ZM12.25 26.8594 Q12.25 16.6562 16.3047 11.9688 Q20.3594 7.2812 26.4688 7.2812 Q32.5156 7.2812 36.6172 11.9453 Q40.7188 16.6094 40.7188 26.5625 Q40.7188 36.0781 36.5 40.9141 Q32.2812 45.75 26.3125 45.75 Q20.4531 45.75 16.3516 40.9922 Q12.25 36.2344 12.25 26.8594 Z"
           id="glyph9651" />
        <glyph
           unicode="n"
           horiz-adv-x="55.615234"
           d="M6.5938 0 L6.5938 51.8594 L14.5 51.8594 L14.5 44.4844 Q20.2188 53.0312 31 53.0312 Q35.6875 53.0312 39.625 51.3438 Q43.5625 49.6562 45.5156 46.9219 Q47.4688 44.1875 48.25 40.4375 Q48.7344 37.9844 48.7344 31.8906 L48.7344 0 L39.9375 0 L39.9375 31.5469 Q39.9375 36.9219 38.9141 39.5781 Q37.8906 42.2344 35.2812 43.8203 Q32.6719 45.4062 29.1562 45.4062 Q23.5312 45.4062 19.4531 41.8438 Q15.375 38.2812 15.375 28.3281 L15.375 0 L6.5938 0 Z"
           id="glyph9653" />
        <glyph
           unicode="l"
           horiz-adv-x="22.216797"
           d="M6.3906 0 L6.3906 71.5781 L15.1875 71.5781 L15.1875 0 L6.3906 0 Z"
           id="glyph9655" />
        <glyph
           unicode="e"
           horiz-adv-x="55.615234"
           d="M42.0938 16.7031 L51.1719 15.5781 Q49.0312 7.625 43.2188 3.2266 Q37.4062 -1.1719 28.375 -1.1719 Q17 -1.1719 10.3281 5.8359 Q3.6562 12.8438 3.6562 25.4844 Q3.6562 38.5781 10.3984 45.8047 Q17.1406 53.0312 27.875 53.0312 Q38.2812 53.0312 44.875 45.9531 Q51.4688 38.875 51.4688 26.0312 Q51.4688 25.25 51.4219 23.6875 L12.75 23.6875 Q13.2344 15.1406 17.5781 10.6016 Q21.9219 6.0625 28.4219 6.0625 Q33.25 6.0625 36.6719 8.6016 Q40.0938 11.1406 42.0938 16.7031 ZM13.2344 30.9062 L42.1875 30.9062 Q41.6094 37.4531 38.875 40.7188 Q34.6719 45.7969 27.9844 45.7969 Q21.9219 45.7969 17.7969 41.75 Q13.6719 37.7031 13.2344 30.9062 Z"
           id="glyph9657" />
        <glyph
           unicode="v"
           horiz-adv-x="50.0"
           d="M21 0 L1.2656 51.8594 L10.5469 51.8594 L21.6875 20.7969 Q23.4844 15.7656 25 10.3594 Q26.1719 14.4531 28.2656 20.2188 L39.7969 51.8594 L48.8281 51.8594 L29.2031 0 L21 0 Z"
           id="glyph9659" />
        <glyph
           unicode="a"
           horiz-adv-x="55.615234"
           d="M40.4375 6.3906 Q35.5469 2.25 31.0312 0.5391 Q26.5156 -1.1719 21.3438 -1.1719 Q12.7969 -1.1719 8.2031 3 Q3.6094 7.1719 3.6094 13.6719 Q3.6094 17.4844 5.3438 20.6328 Q7.0781 23.7812 9.8906 25.6875 Q12.7031 27.5938 16.2188 28.5625 Q18.7969 29.25 24.0312 29.8906 Q34.6719 31.1562 39.7031 32.9062 Q39.75 34.7188 39.75 35.2031 Q39.75 40.5781 37.25 42.7812 Q33.8906 45.75 27.25 45.75 Q21.0469 45.75 18.0938 43.5781 Q15.1406 41.4062 13.7188 35.8906 L5.125 37.0625 Q6.2969 42.5781 8.9844 45.9688 Q11.6719 49.3594 16.75 51.1953 Q21.8281 53.0312 28.5156 53.0312 Q35.1562 53.0312 39.3047 51.4688 Q43.4531 49.9062 45.4062 47.5391 Q47.3594 45.1719 48.1406 41.5469 Q48.5781 39.3125 48.5781 33.4531 L48.5781 21.7344 Q48.5781 9.4688 49.1406 6.2266 Q49.7031 2.9844 51.375 0 L42.1875 0 Q40.8281 2.7344 40.4375 6.3906 ZM39.7031 26.0312 Q34.9062 24.0781 25.3438 22.7031 Q19.9219 21.9219 17.6797 20.9453 Q15.4375 19.9688 14.2109 18.0938 Q12.9844 16.2188 12.9844 13.9219 Q12.9844 10.4062 15.6484 8.0625 Q18.3125 5.7188 23.4375 5.7188 Q28.5156 5.7188 32.4688 7.9375 Q36.4219 10.1562 38.2812 14.0156 Q39.7031 17 39.7031 22.7969 L39.7031 26.0312 Z"
           id="glyph9661" />
        <glyph
           unicode="W"
           horiz-adv-x="94.384766"
           d="M20.2188 0 L1.2188 71.5781 L10.9375 71.5781 L21.8281 24.6562 Q23.5781 17.2812 24.8594 10.0156 Q27.5938 21.4844 28.0781 23.25 L41.7031 71.5781 L53.125 71.5781 L63.375 35.3594 Q67.2344 21.875 68.9531 10.0156 Q70.3125 16.7969 72.5156 25.5938 L83.7344 71.5781 L93.2656 71.5781 L73.6406 0 L64.5 0 L49.4219 54.5469 Q47.5156 61.375 47.1719 62.9375 Q46.0469 58.0156 45.0625 54.5469 L29.8906 0 L20.2188 0 Z"
           id="glyph9663" />
        <glyph
           unicode="2"
           horiz-adv-x="55.615234"
           d="M50.3438 8.4531 L50.3438 0 L3.0312 0 Q2.9375 3.1719 4.0469 6.1094 Q5.8594 10.9375 9.8359 15.625 Q13.8125 20.3125 21.3438 26.4688 Q33.0156 36.0312 37.1172 41.625 Q41.2188 47.2188 41.2188 52.2031 Q41.2188 57.4219 37.4766 61.0078 Q33.7344 64.5938 27.7344 64.5938 Q21.3906 64.5938 17.5781 60.7891 Q13.7656 56.9844 13.7188 50.25 L4.6875 51.1719 Q5.6094 61.2812 11.6641 66.5781 Q17.7188 71.875 27.9375 71.875 Q38.2344 71.875 44.2422 66.1641 Q50.25 60.4531 50.25 52 Q50.25 47.7031 48.4922 43.5547 Q46.7344 39.4062 42.6562 34.8125 Q38.5781 30.2188 29.1094 22.2188 Q21.1875 15.5781 18.9453 13.2109 Q16.7031 10.8438 15.2344 8.4531 L50.3438 8.4531 Z"
           id="glyph9665" />
        <glyph
           unicode="."
           horiz-adv-x="27.783203"
           d="M9.0781 0 L9.0781 10.0156 L19.0938 10.0156 L19.0938 0 L9.0781 0 Z"
           id="glyph9667" />
        <glyph
           unicode="4"
           horiz-adv-x="55.615234"
           d="M32.3281 0 L32.3281 17.1406 L1.2656 17.1406 L1.2656 25.2031 L33.9375 71.5781 L41.1094 71.5781 L41.1094 25.2031 L50.7812 25.2031 L50.7812 17.1406 L41.1094 17.1406 L41.1094 0 L32.3281 0 ZM32.3281 25.2031 L32.3281 57.4688 L9.9062 25.2031 L32.3281 25.2031 Z"
           id="glyph9669" />
        <glyph
           unicode="1"
           horiz-adv-x="55.615234"
           d="M37.25 0 L28.4688 0 L28.4688 56 Q25.2969 52.9844 20.1406 49.9531 Q14.9844 46.9219 10.8906 45.4062 L10.8906 53.9062 Q18.2656 57.375 23.7812 62.3047 Q29.2969 67.2344 31.5938 71.875 L37.25 71.875 L37.25 0 Z"
           id="glyph9671" />
        <glyph
           unicode="y"
           horiz-adv-x="50.0"
           d="M6.2031 -19.9688 L5.2188 -11.7188 Q8.1094 -12.5 10.25 -12.5 Q13.1875 -12.5 14.9453 -11.5234 Q16.7031 -10.5469 17.8281 -8.7969 Q18.6562 -7.4688 20.5156 -2.25 Q20.75 -1.5156 21.2969 -0.0938 L1.6094 51.8594 L11.0781 51.8594 L21.875 21.8281 Q23.9688 16.1094 25.6406 9.8125 Q27.1562 15.875 29.25 21.625 L40.3281 51.8594 L49.125 51.8594 L29.3906 -0.875 Q26.2188 -9.4219 24.4688 -12.6406 Q22.125 -17 19.0938 -19.0234 Q16.0625 -21.0469 11.8594 -21.0469 Q9.3281 -21.0469 6.2031 -19.9688 Z"
           id="glyph9673" />
        <glyph
           unicode="s"
           horiz-adv-x="50.0"
           d="M3.0781 15.4844 L11.7656 16.8438 Q12.5 11.625 15.8438 8.8438 Q19.1875 6.0625 25.2031 6.0625 Q31.25 6.0625 34.1797 8.5234 Q37.1094 10.9844 37.1094 14.3125 Q37.1094 17.2812 34.5156 19 Q32.7188 20.1719 25.5312 21.9688 Q15.875 24.4219 12.1406 26.2031 Q8.4062 27.9844 6.4766 31.1328 Q4.5469 34.2812 4.5469 38.0938 Q4.5469 41.5469 6.1328 44.5078 Q7.7188 47.4688 10.4531 49.4219 Q12.5 50.9219 16.0391 51.9766 Q19.5781 53.0312 23.6406 53.0312 Q29.7344 53.0312 34.3516 51.2734 Q38.9688 49.5156 41.1641 46.5078 Q43.3594 43.5 44.1875 38.4844 L35.5938 37.3125 Q35.0156 41.3125 32.2031 43.5547 Q29.3906 45.7969 24.2656 45.7969 Q18.2188 45.7969 15.625 43.7969 Q13.0312 41.7969 13.0312 39.1094 Q13.0312 37.4062 14.1094 36.0312 Q15.1875 34.625 17.4844 33.6875 Q18.7969 33.2031 25.25 31.4531 Q34.5781 28.9531 38.2578 27.3672 Q41.9375 25.7812 44.0391 22.7578 Q46.1406 19.7344 46.1406 15.2344 Q46.1406 10.8438 43.5781 6.9609 Q41.0156 3.0781 36.1797 0.9531 Q31.3438 -1.1719 25.25 -1.1719 Q15.1406 -1.1719 9.8438 3.0312 Q4.5469 7.2344 3.0781 15.4844 Z"
           id="glyph9675" />
        <glyph
           unicode="d"
           horiz-adv-x="55.615234"
           d="M40.2344 0 L40.2344 6.5469 Q35.2969 -1.1719 25.7344 -1.1719 Q19.5312 -1.1719 14.3281 2.25 Q9.125 5.6719 6.2734 11.7969 Q3.4219 17.9219 3.4219 25.875 Q3.4219 33.6406 6.0078 39.9688 Q8.5938 46.2969 13.7734 49.6641 Q18.9531 53.0312 25.3438 53.0312 Q30.0312 53.0312 33.6953 51.0547 Q37.3594 49.0781 39.6562 45.9062 L39.6562 71.5781 L48.3906 71.5781 L48.3906 0 L40.2344 0 ZM12.4531 25.875 Q12.4531 15.9219 16.6484 10.9922 Q20.8438 6.0625 26.5625 6.0625 Q32.3281 6.0625 36.3516 10.7734 Q40.375 15.4844 40.375 25.1406 Q40.375 35.7969 36.2734 40.7734 Q32.1719 45.75 26.1719 45.75 Q20.3125 45.75 16.3828 40.9688 Q12.4531 36.1875 12.4531 25.875 Z"
           id="glyph9677" />
        <glyph
           unicode="z"
           horiz-adv-x="50.0"
           d="M1.9531 0 L1.9531 7.125 L34.9688 45.0156 Q29.3438 44.7344 25.0469 44.7344 L3.9062 44.7344 L3.9062 51.8594 L46.2969 51.8594 L46.2969 46.0469 L18.2188 13.1406 L12.7969 7.125 Q18.7031 7.5625 23.875 7.5625 L47.8594 7.5625 L47.8594 0 L1.9531 0 Z"
           id="glyph9679" />
        <glyph
           unicode="i"
           horiz-adv-x="22.216797"
           d="M6.6406 61.4688 L6.6406 71.5781 L15.4375 71.5781 L15.4375 61.4688 L6.6406 61.4688 ZM6.6406 0 L6.6406 51.8594 L15.4375 51.8594 L15.4375 0 L6.6406 0 Z"
           id="glyph9681" />
        <glyph
           unicode="r"
           horiz-adv-x="33.30078"
           d="M6.5 0 L6.5 51.8594 L14.4062 51.8594 L14.4062 44 Q17.4375 49.5156 20 51.2734 Q22.5625 53.0312 25.6406 53.0312 Q30.0781 53.0312 34.6719 50.2031 L31.6406 42.0469 Q28.4219 43.9531 25.2031 43.9531 Q22.3125 43.9531 20.0156 42.2188 Q17.7188 40.4844 16.75 37.4062 Q15.2812 32.7188 15.2812 27.1562 L15.2812 0 L6.5 0 Z"
           id="glyph9683" />
        <glyph
           unicode="o"
           horiz-adv-x="55.615234"
           d="M3.3281 25.9219 Q3.3281 40.3281 11.3281 47.2656 Q18.0156 53.0312 27.6406 53.0312 Q38.3281 53.0312 45.1172 46.0234 Q51.9062 39.0156 51.9062 26.6562 Q51.9062 16.6562 48.9062 10.9141 Q45.9062 5.1719 40.1641 2 Q34.4219 -1.1719 27.6406 -1.1719 Q16.75 -1.1719 10.0391 5.8125 Q3.3281 12.7969 3.3281 25.9219 ZM12.3594 25.9219 Q12.3594 15.9688 16.7031 11.0156 Q21.0469 6.0625 27.6406 6.0625 Q34.1875 6.0625 38.5312 11.0391 Q42.875 16.0156 42.875 26.2188 Q42.875 35.8438 38.5 40.7969 Q34.125 45.75 27.6406 45.75 Q21.0469 45.75 16.7031 40.8203 Q12.3594 35.8906 12.3594 25.9219 Z"
           id="glyph9685" />
        <glyph
           unicode="N"
           horiz-adv-x="72.2168"
           d="M7.625 0 L7.625 71.5781 L17.3281 71.5781 L54.9375 15.375 L54.9375 71.5781 L64.0156 71.5781 L64.0156 0 L54.2969 0 L16.7031 56.25 L16.7031 0 L7.625 0 Z"
           id="glyph9687" />
      </font>
    </defs>
    <g
       style="fill:white; stroke:white;"
       id="g9689">
      <rect
         x="0"
         y="0"
         width="560"
         style="clip-path:url(#clipPath1); stroke:none;"
         height="420"
         id="rect9691"
         clip-path="url(#clipPath1)" />
    </g>
    <g
       style="fill:white; text-rendering:optimizeSpeed; color-rendering:optimizeSpeed; image-rendering:optimizeSpeed; shape-rendering:crispEdges; color-interpolation:sRGB; stroke:white;"
       id="g9693">
      <rect
         x="0"
         width="560"
         height="420"
         y="0"
         style="stroke:none;"
         id="rect9695" />
      <path
         style="stroke:none;"
         d="M73 358 L507 358 L507 31 L73 31 Z"
         id="path9697" />
    </g>
    <g
       style="fill:rgb(38,38,38); text-rendering:geometricPrecision; color-rendering:optimizeQuality; image-rendering:optimizeQuality; stroke-linejoin:round; color-interpolation:linearRGB; stroke:rgb(38,38,38); stroke-width:2.6667;"
       id="g9699">
      <line
         y2="358"
         style="fill:none;"
         x1="73"
         x2="507"
         y1="358"
         id="line9701" />
      <line
         y2="31"
         style="fill:none;"
         x1="73"
         x2="507"
         y1="31"
         id="line9703" />
      <line
         y2="353.66"
         style="fill:none;"
         x1="121.2222"
         x2="121.2222"
         y1="358"
         id="line9705" />
      <line
         y2="353.66"
         style="fill:none;"
         x1="217.6667"
         x2="217.6667"
         y1="358"
         id="line9707" />
      <line
         y2="353.66"
         style="fill:none;"
         x1="314.1111"
         x2="314.1111"
         y1="358"
         id="line9709" />
      <line
         y2="353.66"
         style="fill:none;"
         x1="410.5555"
         x2="410.5555"
         y1="358"
         id="line9711" />
      <line
         y2="353.66"
         style="fill:none;"
         x1="507"
         x2="507"
         y1="358"
         id="line9713" />
      <line
         y2="35.34"
         style="fill:none;"
         x1="121.2222"
         x2="121.2222"
         y1="31"
         id="line9715" />
      <line
         y2="35.34"
         style="fill:none;"
         x1="217.6667"
         x2="217.6667"
         y1="31"
         id="line9717" />
      <line
         y2="35.34"
         style="fill:none;"
         x1="314.1111"
         x2="314.1111"
         y1="31"
         id="line9719" />
      <line
         y2="35.34"
         style="fill:none;"
         x1="410.5555"
         x2="410.5555"
         y1="31"
         id="line9721" />
      <line
         y2="35.34"
         style="fill:none;"
         x1="507"
         x2="507"
         y1="31"
         id="line9723" />
    </g>
    <g
       transform="translate(121.2222,364.9333)"
       style="font-size:21px; fill:rgb(38,38,38); text-rendering:geometricPrecision; color-rendering:optimizeQuality; image-rendering:optimizeQuality; font-family:sans-serif; color-interpolation:linearRGB; stroke:rgb(38,38,38);"
       id="g9725">
      <text
         x="-18"
         xml:space="preserve"
         y="22"
         style="stroke:none;"
         id="text9727">500</text>
    </g>
    <g
       transform="translate(217.6667,364.9333)"
       style="font-size:21px; fill:rgb(38,38,38); text-rendering:geometricPrecision; color-rendering:optimizeQuality; image-rendering:optimizeQuality; font-family:sans-serif; color-interpolation:linearRGB; stroke:rgb(38,38,38);"
       id="g9729">
      <text
         x="-18"
         xml:space="preserve"
         y="22"
         style="stroke:none;"
         id="text9731">600</text>
    </g>
    <g
       transform="translate(314.1111,364.9333)"
       style="font-size:21px; fill:rgb(38,38,38); text-rendering:geometricPrecision; color-rendering:optimizeQuality; image-rendering:optimizeQuality; font-family:sans-serif; color-interpolation:linearRGB; stroke:rgb(38,38,38);"
       id="g9733">
      <text
         x="-18"
         xml:space="preserve"
         y="22"
         style="stroke:none;"
         id="text9735">700</text>
    </g>
    <g
       transform="translate(410.5555,364.9333)"
       style="font-size:21px; fill:rgb(38,38,38); text-rendering:geometricPrecision; color-rendering:optimizeQuality; image-rendering:optimizeQuality; font-family:sans-serif; color-interpolation:linearRGB; stroke:rgb(38,38,38);"
       id="g9737">
      <text
         x="-18"
         xml:space="preserve"
         y="22"
         style="stroke:none;"
         id="text9739">800</text>
    </g>
    <g
       transform="translate(507,364.9333)"
       style="font-size:21px; fill:rgb(38,38,38); text-rendering:geometricPrecision; color-rendering:optimizeQuality; image-rendering:optimizeQuality; font-family:sans-serif; color-interpolation:linearRGB; stroke:rgb(38,38,38);"
       id="g9741">
      <text
         x="-18"
         xml:space="preserve"
         y="22"
         style="stroke:none;"
         id="text9743">900</text>
    </g>
    <g
       transform="translate(290.0002,393)"
       style="font-size:21px; fill:rgb(38,38,38); text-rendering:geometricPrecision; color-rendering:optimizeQuality; image-rendering:optimizeQuality; font-family:sans-serif; color-interpolation:linearRGB; stroke:rgb(38,38,38);"
       id="g9745">
      <text
         x="-80"
         xml:space="preserve"
         y="22"
         style="stroke:none;"
         id="text9747">Wavelength (nm)</text>
    </g>
    <g
       style="fill:rgb(38,38,38); text-rendering:geometricPrecision; color-rendering:optimizeQuality; image-rendering:optimizeQuality; stroke-linejoin:round; color-interpolation:linearRGB; stroke:rgb(38,38,38); stroke-width:2.6667;"
       id="g9749">
      <line
         y2="31"
         style="fill:none;"
         x1="73"
         x2="73"
         y1="358"
         id="line9751" />
      <line
         y2="31"
         style="fill:none;"
         x1="507"
         x2="507"
         y1="358"
         id="line9753" />
      <line
         y2="358"
         style="fill:none;"
         x1="73"
         x2="77.34"
         y1="358"
         id="line9755" />
      <line
         y2="295.7143"
         style="fill:none;"
         x1="73"
         x2="77.34"
         y1="295.7143"
         id="line9757" />
      <line
         y2="233.4286"
         style="fill:none;"
         x1="73"
         x2="77.34"
         y1="233.4286"
         id="line9759" />
      <line
         y2="171.1429"
         style="fill:none;"
         x1="73"
         x2="77.34"
         y1="171.1429"
         id="line9761" />
      <line
         y2="108.8571"
         style="fill:none;"
         x1="73"
         x2="77.34"
         y1="108.8571"
         id="line9763" />
      <line
         y2="46.5714"
         style="fill:none;"
         x1="73"
         x2="77.34"
         y1="46.5714"
         id="line9765" />
      <line
         y2="358"
         style="fill:none;"
         x1="507"
         x2="502.66"
         y1="358"
         id="line9767" />
      <line
         y2="295.7143"
         style="fill:none;"
         x1="507"
         x2="502.66"
         y1="295.7143"
         id="line9769" />
      <line
         y2="233.4286"
         style="fill:none;"
         x1="507"
         x2="502.66"
         y1="233.4286"
         id="line9771" />
      <line
         y2="171.1429"
         style="fill:none;"
         x1="507"
         x2="502.66"
         y1="171.1429"
         id="line9773" />
      <line
         y2="108.8571"
         style="fill:none;"
         x1="507"
         x2="502.66"
         y1="108.8571"
         id="line9775" />
      <line
         y2="46.5714"
         style="fill:none;"
         x1="507"
         x2="502.66"
         y1="46.5714"
         id="line9777" />
    </g>
    <g
       transform="translate(66.0667,358)"
       style="font-size:21px; fill:rgb(38,38,38); text-rendering:geometricPrecision; color-rendering:optimizeQuality; image-rendering:optimizeQuality; font-family:sans-serif; color-interpolation:linearRGB; stroke:rgb(38,38,38);"
       id="g9779">
      <text
         x="-12"
         xml:space="preserve"
         y="8.5"
         style="stroke:none;"
         id="text9781">0</text>
    </g>
    <g
       transform="translate(66.0667,295.7143)"
       style="font-size:21px; fill:rgb(38,38,38); text-rendering:geometricPrecision; color-rendering:optimizeQuality; image-rendering:optimizeQuality; font-family:sans-serif; color-interpolation:linearRGB; stroke:rgb(38,38,38);"
       id="g9783">
      <text
         x="-30"
         xml:space="preserve"
         y="8.5"
         style="stroke:none;"
         id="text9785">0.2</text>
    </g>
    <g
       transform="translate(66.0667,233.4286)"
       style="font-size:21px; fill:rgb(38,38,38); text-rendering:geometricPrecision; color-rendering:optimizeQuality; image-rendering:optimizeQuality; font-family:sans-serif; color-interpolation:linearRGB; stroke:rgb(38,38,38);"
       id="g9787">
      <text
         x="-30"
         xml:space="preserve"
         y="8.5"
         style="stroke:none;"
         id="text9789">0.4</text>
    </g>
    <g
       transform="translate(66.0667,171.1429)"
       style="font-size:21px; fill:rgb(38,38,38); text-rendering:geometricPrecision; color-rendering:optimizeQuality; image-rendering:optimizeQuality; font-family:sans-serif; color-interpolation:linearRGB; stroke:rgb(38,38,38);"
       id="g9791">
      <text
         x="-30"
         xml:space="preserve"
         y="8.5"
         style="stroke:none;"
         id="text9793">0.6</text>
    </g>
    <g
       transform="translate(66.0667,108.8571)"
       style="font-size:21px; fill:rgb(38,38,38); text-rendering:geometricPrecision; color-rendering:optimizeQuality; image-rendering:optimizeQuality; font-family:sans-serif; color-interpolation:linearRGB; stroke:rgb(38,38,38);"
       id="g9795">
      <text
         x="-30"
         xml:space="preserve"
         y="8.5"
         style="stroke:none;"
         id="text9797">0.8</text>
    </g>
    <g
       transform="translate(66.0667,46.5714)"
       style="font-size:21px; fill:rgb(38,38,38); text-rendering:geometricPrecision; color-rendering:optimizeQuality; image-rendering:optimizeQuality; font-family:sans-serif; color-interpolation:linearRGB; stroke:rgb(38,38,38);"
       id="g9799">
      <text
         x="-12"
         xml:space="preserve"
         y="8.5"
         style="stroke:none;"
         id="text9801">1</text>
    </g>
    <g
       transform="translate(32.0667,194.4999) rotate(-90)"
       style="font-size:21px; fill:rgb(38,38,38); text-rendering:geometricPrecision; color-rendering:optimizeQuality; image-rendering:optimizeQuality; font-family:sans-serif; color-interpolation:linearRGB; stroke:rgb(38,38,38);"
       id="g9803">
      <text
         x="-97.5"
         xml:space="preserve"
         y="-5"
         style="stroke:none;"
         id="text9805">Normalized intenstiy </text>
    </g>
    <g
       style="stroke-linecap:butt; text-rendering:geometricPrecision; color-rendering:optimizeQuality; image-rendering:optimizeQuality; stroke-linejoin:round; color-interpolation:linearRGB; stroke-width:2.6667;"
       id="g9807">
      <path
         d="M507.0517 282.0046 L507.0309 281.9525 L506.0058 281.5164 L505.1084 281.9655 L504.0823 279.749 L503.184 279.3798 L502.157 278.1992 L501.2578 277.5136 L500.2297 275.9792 L499.3297 275.7193 L498.3006 274.1276 L497.3997 272.6488 L496.3697 271.2016 L495.4679 270.9985 L494.4369 269.7839 L493.5343 268.9964 L492.5023 267.2607 L491.5987 265.8841 L490.5657 264.5706 L489.6614 263.6108 L488.6273 262.054 L487.7222 260.9702 L486.6872 258.7163 L485.7811 258.7482 L484.8746 255.8883 L483.8382 256.357 L482.9309 252.0874 L481.8935 253.7417 L480.9853 251.9541 L479.9469 250.1091 L479.0379 249.2941 L478.1285 246.3178 L477.0887 242.6823 L476.1785 244.9491 L475.1377 241.4873 L474.2266 238.3694 L473.1848 238.8583 L472.2729 238.3193 L471.3605 235.2652 L470.3173 233.0783 L469.4041 228.7126 L468.36 227.9646 L467.446 223.7667 L466.5316 226.3662 L465.486 220.9745 L464.5708 220.6674 L463.6552 217.9733 L462.6082 216.162 L461.6918 216.7421 L460.6439 213.405 L459.7266 215.6873 L458.8089 210.3499 L457.7596 209.3335 L456.8411 206.9653 L455.9221 202.8229 L454.8715 202.3705 L453.9517 198.3637 L453.0316 196.8629 L451.9796 193.9689 L451.0586 194.4712 L450.1373 190.9964 L449.0839 185.4651 L448.1617 185.8357 L447.2392 184.0186 L446.1844 182.9898 L445.261 179.8619 L444.3373 176.2896 L443.2812 172.9947 L442.3566 168.6284 L441.4317 170.4072 L440.5064 166.9306 L439.4484 163.3614 L438.5223 161.1924 L437.5958 158.486 L436.5365 158.1411 L435.6092 154.5023 L434.6815 152.1287 L433.7534 150.9479 L432.6924 147.5392 L431.7635 147.5025 L430.8343 141.996 L429.9047 140.1328 L428.8418 135.299 L427.9114 137.5037 L426.9806 137.6859 L426.0495 133.3044 L424.9848 134.9 L424.0529 124.4629 L423.1206 125.0586 L422.1879 121.566 L421.1215 116.2846 L420.188 111.8856 L419.2542 110.665 L418.32 115.478 L417.2519 109.8267 L416.3169 109.4138 L415.3815 109.1498 L414.4458 107.5624 L413.5096 99.6685 L412.4394 108.5514 L411.5025 96.0919 L410.5652 93.7 L409.6276 95.9733 L408.6896 90.2357 L407.6172 81.8915 L406.6785 91.9699 L405.7393 90.1633 L404.7999 80.2638 L403.86 77.5934 L402.7854 78.6675 L401.8448 75.5993 L400.9039 80.306 L399.9625 69.2747 L399.0208 68.105 L398.0788 66.1567 L397.0016 53.667 L396.0589 64.6987 L395.1157 55.0762 L394.1721 63.4836 L393.2282 60.4057 L392.284 57.5244 L391.2044 64.904 L390.2594 65.1622 L389.314 54.1877 L388.3683 53.464 L387.4222 56.6176 L386.4758 58.109 L385.529 49.6846 L384.5819 55.6932 L383.499 53.3909 L382.5511 46.5714 L381.6028 54.2224 L380.6543 60.454 L379.7054 52.878 L378.756 51.2004 L377.8064 50.3156 L376.8564 53.8597 L375.7703 56.5868 L374.8195 53.0131 L373.8685 58.1673 L372.917 53.38 L371.9652 60.7965 L371.0132 54.7798 L370.0607 60.5328 L369.1079 53.8759 L368.1547 65.972 L367.2012 62.4674 L366.2473 61.3517 L365.2932 63.1192 L364.2022 63.9592 L363.2473 64.6275 L362.2921 63.7268 L361.3365 69.2817 L360.3805 68.6719 L359.4242 68.5884 L358.4676 73.4247 L357.5106 76.5053 L356.5533 77.7454 L355.5956 78.9864 L354.6377 79.5253 L353.6794 85.9355 L352.7207 86.4036 L351.7617 89.9076 L350.8023 90.6329 L349.8427 93.765 L348.8827 93.8753 L347.9223 97.8424 L346.9616 101.5299 L346.0006 102.0765 L345.0393 105.9317 L343.9402 107.6586 L342.9781 110.7378 L342.0157 113.5495 L341.053 114.9681 L340.0899 120.9348 L339.1266 122.7584 L338.1629 127.3523 L337.1988 127.1696 L336.2345 131.2021 L335.2697 134.3048 L334.3047 136.2617 L333.3393 140.8015 L332.3736 144.0476 L331.4076 146.923 L330.4413 149.5201 L329.4746 153.5596 L328.6458 155.8102 L327.6785 157.8316 L326.7109 162.6002 L325.743 164.9399 L324.7747 167.6746 L323.8061 171.5935 L322.8372 175.304 L321.868 178.6619 L320.8985 181.0442 L319.9286 183.7429 L318.9584 187.6376 L317.9879 190.6494 L317.0171 191.6763 L316.046 196.8697 L315.0744 200.1777 L314.1027 203.0917 L313.1305 205.8741 L312.1581 208.8176 L311.1854 212.0136 L310.2123 214.4069 L309.239 218.4692 L308.2653 220.4077 L307.2913 223.2329 L306.4561 225.5756 L305.4816 228.3548 L304.5066 231.925 L303.5314 233.8203 L302.5558 236.0005 L301.58 238.4908 L300.6038 241.5603 L299.6274 243.9551 L298.6506 246.2737 L297.6735 249.204 L296.6961 251.0451 L295.7183 253.6821 L294.88 255.5693 L293.9018 257.5684 L292.9231 260.0959 L291.9442 261.6649 L290.965 264.5341 L289.9855 266.2072 L289.0056 268.3675 L288.0255 270.3348 L287.045 271.4497 L286.2044 273.5627 L285.2233 274.6747 L284.2421 277.4153 L283.2604 278.06 L282.2784 280.0526 L281.2962 281.5054 L280.3137 282.9763 L279.3308 284.9008 L278.4882 286.182 L277.5047 287.3083 L276.521 288.5314 L275.537 290.1282 L274.5527 291.2165 L273.5681 292.8391 L272.5832 293.6737 L271.7388 294.6321 L270.7533 295.7863 L269.7675 296.7464 L268.7815 298.0335 L267.7951 299.1086 L266.8084 299.928 L265.8215 300.9084 L264.9753 301.6394 L263.9878 303.3279 L263 303.7995 L262.0119 304.4896 L261.0235 304.7653 L260.0348 305.9535 L259.1872 306.4285 L258.1979 307.179 L257.2084 307.8694 L256.2186 308.2255 L255.2285 309.5248 L254.3797 309.4694 L253.389 310.0393 L252.3981 310.7218 L251.4069 311.2092 L250.4153 311.8661 L249.4235 312.1002 L248.5732 312.4154 L247.5809 312.8424 L246.5882 313.3314 L245.5954 313.7823 L244.6021 313.9851 L243.7506 314.5426 L242.7569 314.8132 L241.7629 315.0702 L240.7686 315.2614 L239.9161 315.58 L238.9213 316.0064 L237.9262 316.1704 L236.9308 316.2812 L235.9351 316.446 L235.0815 316.8111 L234.0853 316.7232 L233.0888 316.9042 L232.0921 317.0295 L231.2375 316.8924 L230.2402 317.0664 L229.2426 317.16 L228.2448 317.1003 L227.2467 317.1512 L226.3909 317.0731 L225.3923 317.0756 L224.3934 317.2888 L223.3942 317.1907 L222.5376 316.9271 L221.5379 317.0148 L220.5379 316.7725 L219.5377 316.5793 L218.6801 316.4062 L217.6794 316.3039 L216.6783 316.0358 L215.677 315.7687 L214.8186 315.5967 L213.8168 315.2767 L212.8147 314.8594 L211.8124 314.4299 L210.953 314.2492 L209.9502 313.907 L208.9471 313.2843 L208.087 312.9676 L207.0834 312.5208 L206.0795 311.8759 L205.0754 311.5834 L204.2144 310.9674 L203.2098 310.3641 L202.2049 309.8508 L201.1997 308.8877 L200.3379 308.4764 L199.3322 307.7362 L198.3263 307.3153 L197.4638 306.3558 L196.4574 305.51 L195.4507 304.496 L194.5876 304.0219 L193.5805 303.084 L192.573 302.1569 L191.5653 301.0686 L190.7014 300.1789 L189.6932 299.2531 L188.6848 297.9871 L187.8202 297.0309 L186.8112 295.9491 L185.802 294.6441 L184.9368 293.802 L183.9272 292.6747 L182.9172 291.5209 L182.0514 290.1502 L181.041 288.8803 L180.0303 287.7604 L179.0194 286.1389 L178.1528 285.0251 L177.1413 283.4286 L176.1297 282.2867 L175.2624 281.4797 L174.2503 279.766 L173.2379 278.1414 L172.37 276.9563 L171.3571 275.5874 L170.3441 273.8252 L169.4755 272.857 L168.462 271.0533 L167.4482 269.5505 L166.579 268.2737 L165.5648 266.6121 L164.5502 265.1085 L163.6805 263.7901 L162.6655 262.2989 L161.7953 260.7659 L160.7799 259.4118 L159.7642 257.7936 L158.8935 256.3236 L157.8773 254.8595 L156.8609 253.483 L155.9896 251.9135 L154.9728 250.5127 L153.9557 249.1489 L153.0837 248.2567 L152.0662 246.8294 L151.0484 245.5679 L150.1759 244.3862 L149.1576 243.309 L148.2847 242.6205 L147.2661 241.5318 L146.2471 240.5558 L145.3736 239.6281 L144.3542 238.8724 L143.3347 238.2183 L142.4605 237.6811 L141.4405 237.401 L140.566 236.9745 L139.5455 236.6288 L138.5248 236.4353 L137.6498 236.4062 L136.6286 236.6551 L135.7532 236.9642 L134.7316 237.0708 L133.7098 237.5602 L132.8338 238.1917 L131.8115 238.8973 L130.9351 239.6124 L129.9125 240.4934 L128.8896 241.4328 L128.0126 242.6895 L126.9893 244.0082 L126.1119 245.2103 L125.0882 246.4003 L124.0642 247.7453 L123.1863 249.2404 L122.1619 250.9435 L121.2836 252.0105 L120.2588 253.5542 L119.2337 254.8867 L118.3549 256.2234 L117.3294 257.6196 L116.4502 258.807 L115.4243 259.9987 L114.3982 261.3638 L113.5184 262.0728 L112.4919 263.2517 L111.6118 264.1262 L110.5848 264.9906 L109.7044 265.6701 L108.677 266.4005 L107.6494 267.0481 L106.7684 267.6787 L105.7404 268.0818 L104.8591 268.6215 L103.8307 269.0158 L102.949 269.2111 L101.9202 269.5334 L101.0382 269.7155 L100.0089 270.0587 L98.9795 270.1491 L98.0969 270.2293 L97.067 270.4759 L96.1842 270.8087 L95.1539 270.842 L94.2707 270.8658 L93.24 270.8499 L92.3564 270.8618 L91.3254 270.907 L90.2941 270.7784 L89.41 270.7095 L88.3783 270.7899 L87.4939 270.789 L86.4618 270.6438 L85.577 270.6339 L84.5446 270.4923 L83.6595 270.3917 L82.6266 270.2675 L81.7412 270.1786 L80.7079 270.0606 L79.8221 269.8779 L78.7885 269.7828 L77.7547 269.6556 L76.8684 269.5381 L75.8342 269.3426 L74.9476 269.2858 L73.913 268.9711 L73.026 268.9437 L72.9483 268.9315"
         style="fill:none; fill-rule:evenodd;"
         id="path9809" />
      <path
         d="M504.22 358.039 L504.1052 352.9953 L503.9212 358.039"
         style="fill:none; fill-rule:evenodd; stroke:blue;"
         id="path9811" />
      <path
         d="M502.195 358.039 L502.18 357.6463 L502.1328 358.039"
         style="fill:none; fill-rule:evenodd; stroke:blue;"
         id="path9813" />
      <path
         d="M478.679 358.039 L478.0232 341.6565 L477.5651 358.039"
         style="fill:none; fill-rule:evenodd; stroke:blue;"
         id="path9815" />
      <path
         d="M474.8299 358.039 L474.2514 351.9922 L473.8902 358.039"
         style="fill:none; fill-rule:evenodd; stroke:blue;"
         id="path9817" />
      <path
         d="M472.5907 358.039 L472.2978 352.649 L471.9743 358.039"
         style="fill:none; fill-rule:evenodd; stroke:blue;"
         id="path9819" />
      <path
         d="M461.9152 358.039 L461.7173 345.9196 L460.6695 347.2798 L459.7522 352.9265 L459.6857 358.039"
         style="fill:none; fill-rule:evenodd; stroke:blue;"
         id="path9821" />
      <path
         d="M457.2729 358.039 L456.8669 355.1856 L455.9481 338.4 L454.8975 332.2264 L454.3654 358.039"
         style="fill:none; fill-rule:evenodd; stroke:blue;"
         id="path9823" />
      <path
         d="M453.4974 358.039 L452.9262 335.6805 L452.7243 358.039"
         style="fill:none; fill-rule:evenodd; stroke:blue;"
         id="path9825" />
      <path
         d="M442.6132 358.039 L442.3833 350.1558 L441.6256 358.039"
         style="fill:none; fill-rule:evenodd; stroke:blue;"
         id="path9827" />
      <path
         d="M432.6811 358.039 L431.7909 345.5959 L431.3099 358.039"
         style="fill:none; fill-rule:evenodd; stroke:blue;"
         id="path9829" />
      <path
         d="M429.091 358.039 L428.8694 355.8874 L427.939 343.6364 L427.0083 329.5906 L425.9441 344.2812 L425.0126 308.9411 L424.0807 353.5717 L423.1484 309.77 L422.0826 292.8644 L421.1495 330.6492 L420.2161 295.6944 L419.2822 293.0722 L418.2146 290.3232 L417.28 281.3461 L416.3451 266.2128 L415.4097 262.0835 L414.4741 273.7687 L413.4043 253.9807 L412.4678 268.2827 L411.5309 272.2883 L410.5938 215.9808 L409.6562 238.5864 L408.5842 213.9212 L407.6459 191.9636 L406.7072 122.0775 L405.7681 190.7176 L404.8287 170.793 L403.7546 173.0274 L402.8144 148.0495 L401.8738 135.9728 L400.933 134.8177 L399.9916 139.17 L398.9155 117.009 L397.9734 76.351 L397.031 83.5669 L396.0882 108.577 L395.1451 47.9733 L394.2016 76.7689 L393.2577 59.5959 L392.1786 67.3591 L391.234 82.5899 L390.289 68.7281 L389.3437 73.2063 L388.3981 46.5714 L387.452 68.1285 L386.5057 51.7212 L385.4237 75.0281 L384.4765 91.124 L383.529 67.137 L382.5812 94.1786 L381.633 102.3694 L380.6844 87.3083 L379.7355 103.9198 L378.7863 125.9481 L377.701 123.2437 L376.7511 137.8973 L375.8007 145.458 L374.85 138.1933 L373.899 138.8476 L372.9476 170.7834 L371.9959 150.949 L371.0438 168.9254 L370.0914 178.5014 L369.1387 196.5232 L368.1855 167.9383 L367.0958 191.5979 L366.142 208.5026 L365.1878 226.3996 L364.2332 210.8376 L363.2784 227.8014 L362.3232 251.9005 L361.3676 223.6499 L360.4117 240.4176 L359.4555 230.3008 L358.4989 244.2245 L357.542 255.935 L356.5847 251.2242 L355.6271 253.5645 L354.6692 267.6765 L353.7109 270.3471 L352.7523 265.2869 L351.6563 280.2713 L350.697 274.3523 L349.7373 276.1481 L348.7773 273.7 L347.8169 292.9332 L346.8563 277.8848 L345.8953 292.3222 L344.9339 289.9121 L343.9722 289.2234 L343.0103 291.4314 L342.0479 295.3543 L341.0852 292.8901 L340.1222 296.3777 L339.1589 300.4941 L338.1952 297.1953 L337.2312 300.7128 L336.2668 294.72 L335.3022 288.9059 L334.3372 281.7083 L333.3719 298.1403 L332.4062 299.0775 L331.4403 298.2794 L330.474 309.1404 L329.5074 286.7789 L328.5404 300.7765 L327.5731 302.0306 L326.6055 302.8971 L325.6376 298.2593 L324.6693 295.2239 L323.7007 295.9899 L322.7319 295.3708 L321.7626 291.4436 L320.7931 301.5158 L319.9618 299.7441 L318.9917 292.8128 L318.0212 303.3666 L317.0504 311.7614 L316.0793 299.8682 L315.1079 302.2478 L314.1361 299.5772 L313.1641 299.0172 L312.1917 298.161 L311.219 301.1372 L310.246 291.2913 L309.2726 301.9846 L308.299 305.3898 L307.325 310.1718 L306.3508 307.5152 L305.3762 315.8243 L304.4013 314.9147 L303.5654 308.7548 L302.5899 320.0853 L301.6141 334.0815 L300.638 322.4511 L299.6615 324.5291 L298.6848 317.8517 L297.7077 320.27 L296.7303 333.5343 L295.7527 320.3699 L294.7747 326.792 L293.7964 322.308 L292.9576 334.2421 L291.9787 318.5924 L290.9995 339.2382 L290.02 329.8766 L289.0403 323.4651 L288.0602 334.6179 L287.0797 324.5562 L286.099 330.2266 L285.118 334.344 L284.2769 333.3753 L283.2953 337.8725 L282.3134 348.8543 L281.3312 324.0981 L280.3487 338.8253 L279.3659 346.6815 L278.3828 345.1086 L277.3994 341.4043 L276.5562 338.9076 L275.5722 342.1429 L274.588 346.7054 L273.6035 348.4121 L272.6186 333.8157 L271.6334 323.0197 L270.6479 338.5223 L269.803 336.2937 L268.817 343.151 L267.8307 351.1865 L266.844 341.6633 L265.8571 347.5518 L264.8699 356.9348 L264.0235 354.761 L263.0358 351.7723 L262.0477 343.1463 L261.0594 342.3052 L260.0707 342.5486 L259.0818 346.0687 L258.2945 358.039"
         style="fill:none; fill-rule:evenodd; stroke:blue;"
         id="path9831" />
      <path
         d="M258.138 358.039 L257.2444 349.4633 L256.2547 351.5006 L255.2646 356.2987 L254.2743 357.252 L253.2836 355.374 L252.4343 344.8172 L251.4431 347.766 L250.4516 353.5356 L249.4599 351.476 L248.4678 339.8252 L247.6172 354.9434 L246.6247 357.6574 L245.6319 354.0698 L244.6387 346.5282 L243.6452 355.9456 L242.7935 348.1087 L241.7995 355.4581 L240.8053 340.2834 L239.8107 350.948 L238.8159 357.979 L238.7673 358.039"
         style="fill:none; fill-rule:evenodd; stroke:blue;"
         id="path9833" />
      <path
         d="M237.8087 358.039 L236.9676 352.6267 L235.972 353.6421 L234.9761 353.541 L234.1222 356.765 L233.1258 357.901 L233.1062 358.039"
         style="fill:none; fill-rule:evenodd; stroke:blue;"
         id="path9835" />
      <path
         d="M231.358 358.039 L231.1321 356.0179 L230.1348 357.3485 L229.2798 349.6618 L228.282 357.6329 L227.2839 357.7816 L227.1353 358.039"
         style="fill:none; fill-rule:evenodd; stroke:blue;"
         id="path9837" />
      <path
         d="M222.6274 358.039 L222.4322 357.0168 L221.5754 356.7415 L221.4395 358.039"
         style="fill:none; fill-rule:evenodd; stroke:blue;"
         id="path9839" />
      <path
         d="M218.101 358.039 L217.717 353.0434 L216.9802 358.039"
         style="fill:none; fill-rule:evenodd; stroke:blue;"
         id="path9841" />
      <path
         d="M215.4581 358.039 L214.7132 356.4707 L214.2464 358.039"
         style="fill:none; fill-rule:evenodd; stroke:blue;"
         id="path9843" />
      <path
         d="M208.2276 358.039 L207.9816 356.1497 L207.7849 358.039"
         style="fill:none; fill-rule:evenodd; stroke:blue;"
         id="path9845" />
      <path
         d="M203.6068 358.039 L203.248 356.2651 L203.0336 358.039"
         style="fill:none; fill-rule:evenodd; stroke:blue;"
         id="path9847" />
      <path
         d="M183.0493 358.039 L182.9561 357.3782 L182.7688 358.039"
         style="fill:none; fill-rule:evenodd; stroke:blue;"
         id="path9849" />
      <path
         d="M87.5734 358.039 L87.5359 357.9448 L87.4998 358.039"
         style="fill:none; fill-rule:evenodd; stroke:blue;"
         id="path9851" />
      <path
         d="M85.544 358.039 L85.4716 357.843 L85.3127 358.039"
         style="fill:none; fill-rule:evenodd; stroke:blue;"
         id="path9853" />
      <path
         d="M76.4363 358.039 L75.8766 356.525 L74.99 355.066 L74.0097 358.039"
         style="fill:none; fill-rule:evenodd; stroke:blue;"
         id="path9855" />
      <path
         d="M73.6791 358.039 L73.0685 357.6753 L72.9483 357.552"
         style="fill:none; fill-rule:evenodd; stroke:blue;"
         id="path9857" />
    </g>
    <g
       style="stroke-linecap:butt; fill:red; text-rendering:geometricPrecision; color-rendering:optimizeQuality; image-rendering:optimizeQuality; stroke-linejoin:bevel; stroke-dasharray:8,8; color-interpolation:linearRGB; stroke:red; stroke-width:2.6667; stroke-miterlimit:1;"
       id="g9859">
      <path
         d="M381.6222 237.8171 L382.5385 247.3651 L383.5993 208.9753 L384.5252 225.7369 L385.451 227.5706 L386.5023 200.3535 L387.4282 170.2335 L388.354 179.9235 L389.2799 162.7565 L390.3408 184.2327 L391.2667 160.0203 L392.2021 141.6295 L393.1377 130.4424 L394.2082 117.6221 L395.1437 143.3658 L396.0889 114.0976 L397.0244 97.9059 L397.9599 132.8512 L399.0304 82.3241 L399.966 97.4253 L400.9111 92.8481 L401.8273 70.917 L402.8882 79.3562 L403.8141 74.1109 L404.7399 56.3642 L405.7912 58.8389 L406.7171 46.5714 L407.6429 84.0933 L408.5688 76.6313 L409.6297 92.0489 L410.5555 64.5157 L411.4718 80.0169 L412.5327 103.8686 L413.4586 121.4016 L414.3844 109.3578 L415.4356 125.6772 L416.3615 144.6619 L417.2874 152.2745 L418.2133 128.3123 L419.2741 169.2518 L420.2 132.1589 L421.1162 170.5174 L422.1771 187.0743 L423.103 206.5341 L424.0288 192.6061 L425.0801 223.8192 L426.006 216.3396 L426.9318 227.0596 L427.8577 246.6943 L428.9185 237.8836 L429.8445 256.862 L430.751 261.7604 L431.7926 275.1658 L432.7088 268.1526 L433.7504 266.8557 L434.6667 275.679 L435.5732 272.8289 L436.6149 301.4572 L437.531 307.626 L438.5727 315.1686 L439.4889 296.0605 L440.3955 314.1319 L441.4371 316.9052 L442.3533 329.8693 L443.3949 323.829 L444.3111 327.9731 L445.2177 331.5009 L446.2593 333.8849 L447.1755 333.3804 L448.2171 337.8117 L449.1333 332.9184 L450.1556 345.7852 L451.0622 340.2041 L452.0845 338.3243 L452.9911 344.0743 L454.0134 348.2575 L454.92 347.6258 L455.9423 348.315 L456.8489 343.644 L457.8712 351.3993 L458.7778 352.7511"
         style="fill:none; fill-rule:evenodd;"
         id="path9861" />
      <line
         x1="396.0889"
         x2="396.0889"
         y1="358.039"
         style="fill:none; stroke-dasharray:2,2; stroke:black;"
         y2="30.961"
         id="line9863" />
    </g>
  </g>
  <g
     id="drawing"
     transform="translate(-43.141064,-147.0515)">
    <g
       clip-path="url(#854)"
       id="page">
      <g
         id="Solid">
        <path
           id="path12499"
           d="m 227.66,280.33 0,0 0,0.98 0,0.98 -12.43,7.17 0,-0.98 0,-0.98 z"
           inkscape:connector-curvature="0"
           style="fill:#000000;fill-rule:evenodd;stroke:#000000;stroke-width:0;stroke-linejoin:miter;shape-rendering:geometricPrecision" />
      </g>
      <g
         id="g12501">
        <path
           id="path12503"
           d="m 215.23,287.5 0,0 0,0.98 0,0.98 -12.48,-7.2 0.05,-0.95 0.8,-0.52 z"
           inkscape:connector-curvature="0"
           style="fill:#000000;fill-rule:evenodd;stroke:#000000;stroke-width:0;stroke-linejoin:miter;shape-rendering:geometricPrecision" />
        <line
           id="line12505"
           y2="278.70999"
           x2="206.8"
           y1="283.57001"
           x1="215.23"
           style="stroke:#000000;stroke-width:1.70000005;shape-rendering:auto" />
      </g>
      <g
         id="g12507">
        <path
           id="path12509"
           d="m 264.09,302.34 0,0 0.85,0.49 0.85,0.49 -13.28,7.67 0,-0.98 0,-0.98 z"
           inkscape:connector-curvature="0"
           style="fill:#000000;fill-rule:evenodd;stroke:#000000;stroke-width:0;stroke-linejoin:miter;shape-rendering:geometricPrecision" />
      </g>
      <g
         id="g12511">
        <path
           id="path12513"
           d="m 252.51,309.03 0,0 0,0.98 0,0.98 -13.28,-7.67 0.85,-0.49 0.85,-0.49 z"
           inkscape:connector-curvature="0"
           style="fill:#000000;fill-rule:evenodd;stroke:#000000;stroke-width:0;stroke-linejoin:miter;shape-rendering:geometricPrecision" />
      </g>
      <g
         id="g12515">
        <path
           id="path12517"
           d="m 240.93,302.34 0,0 -0.85,0.49 -0.85,0.49 0,-14.35 0.85,-0.49 0.85,0.49 z"
           inkscape:connector-curvature="0"
           style="fill:#000000;fill-rule:evenodd;stroke:#000000;stroke-width:0;stroke-linejoin:miter;shape-rendering:geometricPrecision" />
      </g>
      <g
         id="g12519">
        <path
           id="path12521"
           d="m 240.93,288.97 0,0 -0.85,-0.49 0,-0.98 11.58,-6.68 0.85,0.49 0,0.98 z"
           inkscape:connector-curvature="0"
           style="fill:#000000;fill-rule:evenodd;stroke:#000000;stroke-width:0;stroke-linejoin:miter;shape-rendering:geometricPrecision" />
      </g>
      <g
         id="g12523">
        <path
           id="path12525"
           d="m 252.51,282.29 0,0 0,-0.98 0.85,-0.49 11.58,6.68 0,0.98 -0.85,0.49 z"
           inkscape:connector-curvature="0"
           style="fill:#000000;fill-rule:evenodd;stroke:#000000;stroke-width:0;stroke-linejoin:miter;shape-rendering:geometricPrecision" />
        <line
           id="line12527"
           y2="290.92999"
           x2="260.69"
           y1="286.22"
           x1="252.50999"
           style="stroke:#000000;stroke-width:1.70000005;shape-rendering:auto" />
      </g>
      <g
         id="g12529">
        <path
           id="path12531"
           d="m 264.09,288.97 0,0 0.85,-0.49 0.85,0.49 0,14.35 -0.85,-0.49 -0.85,-0.49 z"
           inkscape:connector-curvature="0"
           style="fill:#000000;fill-rule:evenodd;stroke:#000000;stroke-width:0;stroke-linejoin:miter;shape-rendering:geometricPrecision" />
      </g>
      <g
         id="g12533">
        <path
           id="path12535"
           d="m 240.08,287.5 0,0 0,0.98 -0.85,0.49 -11.57,-6.68 0,-0.98 0,-0.98 z"
           inkscape:connector-curvature="0"
           style="fill:#000000;fill-rule:evenodd;stroke:#000000;stroke-width:0;stroke-linejoin:miter;shape-rendering:geometricPrecision" />
        <line
           id="line12537"
           y2="286.22"
           x2="227.66"
           y1="290.92999"
           x1="235.83"
           style="stroke:#000000;stroke-width:1.70000005;shape-rendering:auto" />
      </g>
      <g
         id="g12539">
        <path
           id="path12541"
           d="m 265.79,288.97 0,0 -0.85,-0.49 0,-0.98 12.43,-7.17 0,0.98 0,0.98 z"
           inkscape:connector-curvature="0"
           style="fill:#000000;fill-rule:evenodd;stroke:#000000;stroke-width:0;stroke-linejoin:miter;shape-rendering:geometricPrecision" />
      </g>
      <g
         id="g12543">
        <path
           id="path12545"
           d="m 277.37,282.29 0,0 0,-0.98 0,-0.98 12.42,7.17 0,0.98 0,0.98 z"
           inkscape:connector-curvature="0"
           style="fill:#000000;fill-rule:evenodd;stroke:#000000;stroke-width:0;stroke-linejoin:miter;shape-rendering:geometricPrecision" />
        <line
           id="line12547"
           y2="292.16"
           x2="287.67001"
           y1="286.22"
           x1="277.37"
           style="stroke:#000000;stroke-width:1.70000005;shape-rendering:auto" />
      </g>
      <g
         id="g12549">
        <path
           id="path12551"
           d="m 289.79,289.46 0,0 0,-0.98 0,-0.98 11.63,-6.71 0.8,0.52 0.05,0.95 z"
           inkscape:connector-curvature="0"
           style="fill:#000000;fill-rule:evenodd;stroke:#000000;stroke-width:0;stroke-linejoin:miter;shape-rendering:geometricPrecision" />
      </g>
      <g
         id="g12553">
        <text
           id="text12555"
           xml:space="preserve"
           style="text-anchor:start;text-rendering:geometricPrecision"><tspan
             id="tspan12557"
             font-size="10"
             y="270.85999"
             x="248.61"
             style="font-size:10px;font-family:Arial;fill:#000000">O</tspan></text>
      </g>
      <g
         id="g12559">
        <path
           id="path12561"
           d="m 253.36,280.82 0,0 -0.85,0.49 -0.85,-0.49 0,-8.23 0.85,0 0.85,0 z"
           inkscape:connector-curvature="0"
           style="fill:#000000;fill-rule:evenodd;stroke:#000000;stroke-width:0;stroke-linejoin:miter;shape-rendering:geometricPrecision" />
      </g>
      <g
         id="g12563">
        <path
           id="path12565"
           d="m 253.36,262.01 0,0 -0.85,0 -0.85,0 0,-8.96 0.85,-0.49 0.85,0.49 z"
           inkscape:connector-curvature="0"
           style="fill:#000000;fill-rule:evenodd;stroke:#000000;stroke-width:0;stroke-linejoin:miter;shape-rendering:geometricPrecision" />
      </g>
      <g
         id="g12567">
        <path
           id="path12569"
           d="m 253.36,253.05 0,0 -0.85,-0.49 0,-0.98 11.62,-6.71 0.85,0.49 0.85,0.49 z"
           inkscape:connector-curvature="0"
           style="fill:#000000;fill-rule:evenodd;stroke:#000000;stroke-width:0;stroke-linejoin:miter;shape-rendering:geometricPrecision" />
        <line
           id="line12571"
           y2="242.91"
           x2="260.73001"
           y1="247.64999"
           x1="252.50999"
           style="stroke:#000000;stroke-width:1.70000005;shape-rendering:auto" />
      </g>
      <g
         id="g12573">
        <path
           id="path12575"
           d="m 265.83,245.85 0,0 -0.85,-0.49 -0.85,-0.49 0,-13.42 0.85,-0.49 0.85,-0.49 z"
           inkscape:connector-curvature="0"
           style="fill:#000000;fill-rule:evenodd;stroke:#000000;stroke-width:0;stroke-linejoin:miter;shape-rendering:geometricPrecision" />
      </g>
      <g
         id="g12577">
        <path
           id="path12579"
           d="m 265.83,230.47 0,0 -0.85,0.49 -0.85,0.49 -11.62,-6.71 0,-0.98 0.85,-0.49 z"
           inkscape:connector-curvature="0"
           style="fill:#000000;fill-rule:evenodd;stroke:#000000;stroke-width:0;stroke-linejoin:miter;shape-rendering:geometricPrecision" />
        <line
           id="line12581"
           y2="228.67"
           x2="252.50999"
           y1="233.41"
           x1="260.73001"
           style="stroke:#000000;stroke-width:1.70000005;shape-rendering:auto" />
      </g>
      <g
         id="g12583">
        <path
           id="path12585"
           d="m 251.66,223.27 0,0 0.85,0.49 0,0.98 -11.62,6.71 -0.85,-0.49 -0.85,-0.49 z"
           inkscape:connector-curvature="0"
           style="fill:#000000;fill-rule:evenodd;stroke:#000000;stroke-width:0;stroke-linejoin:miter;shape-rendering:geometricPrecision" />
      </g>
      <g
         id="g12587">
        <path
           id="path12589"
           d="m 239.19,230.47 0,0 0.85,0.49 0.85,0.49 0,13.42 -0.85,0.49 -0.85,0.49 z"
           inkscape:connector-curvature="0"
           style="fill:#000000;fill-rule:evenodd;stroke:#000000;stroke-width:0;stroke-linejoin:miter;shape-rendering:geometricPrecision" />
        <line
           id="line12591"
           y2="242.91"
           x2="244.28999"
           y1="233.41"
           x1="244.28999"
           style="stroke:#000000;stroke-width:1.70000005;shape-rendering:auto" />
      </g>
      <g
         id="g12593">
        <path
           id="path12595"
           d="m 239.19,245.85 0,0 0.85,-0.49 0.85,-0.49 11.62,6.71 0,0.98 -0.85,0.49 z"
           inkscape:connector-curvature="0"
           style="fill:#000000;fill-rule:evenodd;stroke:#000000;stroke-width:0;stroke-linejoin:miter;shape-rendering:geometricPrecision" />
      </g>
      <g
         id="g12597">
        <text
           id="text12599"
           xml:space="preserve"
           style="text-anchor:start;text-rendering:geometricPrecision"><tspan
             id="tspan12601"
             font-size="10"
             y="213.25999"
             x="249.19"
             style="font-size:10px;font-family:Arial;fill:#000000">SO</tspan><tspan
             id="tspan12603"
             font-size="7.5"
             dy="2.26"
             style="font-size:7.5px;font-family:Arial;fill:#000000">3</tspan><tspan
             id="tspan12605"
             font-size="10"
             dy="-2.26"
             style="font-size:10px;font-family:Arial;fill:#000000">Na</tspan></text>
      </g>
      <g
         id="g12607">
        <path
           id="path12609"
           d="m 253.36,223.27 0,0 -0.85,0.49 -0.85,-0.49 0,-8.28 0.85,0 0.85,0 z"
           inkscape:connector-curvature="0"
           style="fill:#000000;fill-rule:evenodd;stroke:#000000;stroke-width:0;stroke-linejoin:miter;shape-rendering:geometricPrecision" />
      </g>
      <g
         id="g12611">
        <text
           id="text12613"
           xml:space="preserve"
           style="text-anchor:start;text-rendering:geometricPrecision"><tspan
             id="tspan12615"
             font-size="10"
             y="291.07001"
             x="186.05"
             style="font-size:10px;font-family:Arial;fill:#000000">N</tspan></text>
      </g>
      <g
         id="g12617">
        <path
           id="path12619"
           d="m 203.6,280.79 0,0 -0.8,0.52 -0.91,-0.53 -1.37,-13.09 0.78,-0.7 0.99,1.29 z"
           inkscape:connector-curvature="0"
           style="fill:#000000;fill-rule:evenodd;stroke:#000000;stroke-width:0;stroke-linejoin:miter;shape-rendering:geometricPrecision" />
      </g>
      <g
         id="g12621">
        <path
           id="path12623"
           d="m 201.05,266.07 0,0 0.25,0.92 -0.78,0.7 -12.88,-2.74 -0.43,-0.96 0.55,-0.75 z"
           inkscape:connector-curvature="0"
           style="fill:#000000;fill-rule:evenodd;stroke:#000000;stroke-width:0;stroke-linejoin:miter;shape-rendering:geometricPrecision" />
      </g>
      <g
         id="g12625">
        <path
           id="path12627"
           d="m 186.23,263.99 0,0 0.98,0 0.43,0.96 -6.59,11.41 -1.04,0.11 -0.49,-0.85 z"
           inkscape:connector-curvature="0"
           style="fill:#000000;fill-rule:evenodd;stroke:#000000;stroke-width:0;stroke-linejoin:miter;shape-rendering:geometricPrecision" />
        <line
           id="line12629"
           y2="272.22"
           x2="177.56"
           y1="263.98999"
           x1="182.3"
           style="stroke:#000000;stroke-width:1.70000005;shape-rendering:auto" />
      </g>
      <g
         id="g12631">
        <path
           id="path12633"
           d="m 179.63,277.32 0,0 0.38,-0.85 1.04,-0.11 5.42,6.01 -0.63,0.57 -0.64,0.57 z"
           inkscape:connector-curvature="0"
           style="fill:#000000;fill-rule:evenodd;stroke:#000000;stroke-width:0;stroke-linejoin:miter;shape-rendering:geometricPrecision" />
      </g>
      <g
         id="g12635">
        <path
           id="path12637"
           d="m 194.3,286.03 0,0 -0.35,-0.78 -0.34,-0.77 8.28,-3.7 0.91,0.53 -0.05,0.95 z"
           inkscape:connector-curvature="0"
           style="fill:#000000;fill-rule:evenodd;stroke:#000000;stroke-width:0;stroke-linejoin:miter;shape-rendering:geometricPrecision" />
      </g>
      <g
         id="g12639">
        <path
           id="path12641"
           d="m 202.9,266.69 0,0 -1.6,0.3 -0.25,-0.92 10.38,-9.35 0.57,0.63 0.57,0.63 z"
           inkscape:connector-curvature="0"
           style="fill:#000000;fill-rule:evenodd;stroke:#000000;stroke-width:0;stroke-linejoin:miter;shape-rendering:geometricPrecision" />
      </g>
      <g
         id="g12643">
        <path
           id="path12645"
           d="m 191.83,292.9 0,0 0.75,-0.41 0.74,-0.41 7.5,13.62 -0.98,-0.01 -0.98,-0.01 z"
           inkscape:connector-curvature="0"
           style="fill:#000000;fill-rule:evenodd;stroke:#000000;stroke-width:0;stroke-linejoin:miter;shape-rendering:geometricPrecision" />
      </g>
      <g
         id="g12647">
        <path
           id="path12649"
           d="m 198.86,305.68 0,0 0.98,0.01 0.98,0.01 -7.2,12.46 -0.98,0 -0.98,0 z"
           inkscape:connector-curvature="0"
           style="fill:#000000;fill-rule:evenodd;stroke:#000000;stroke-width:0;stroke-linejoin:miter;shape-rendering:geometricPrecision" />
      </g>
      <g
         id="g12651">
        <path
           id="path12653"
           d="m 191.66,318.16 0,0 0.98,0 0.98,0 7.2,12.47 -0.98,0 -0.98,0 z"
           inkscape:connector-curvature="0"
           style="fill:#000000;fill-rule:evenodd;stroke:#000000;stroke-width:0;stroke-linejoin:miter;shape-rendering:geometricPrecision" />
      </g>
      <g
         id="g12655">
        <path
           id="path12657"
           d="m 198.86,330.63 0,0 0.98,0 0.98,0 -7.2,12.47 -0.98,0 -0.98,0 z"
           inkscape:connector-curvature="0"
           style="fill:#000000;fill-rule:evenodd;stroke:#000000;stroke-width:0;stroke-linejoin:miter;shape-rendering:geometricPrecision" />
      </g>
      <g
         id="g12659">
        <text
           id="text12661"
           xml:space="preserve"
           style="text-anchor:start;text-rendering:geometricPrecision"><tspan
             id="tspan12663"
             font-size="10"
             y="359.47"
             x="196.50999"
             style="font-size:10px;font-family:Arial;fill:#000000">SO</tspan><tspan
             id="tspan12665"
             font-size="7.5"
             dy="2.26"
             style="font-size:7.5px;font-family:Arial;fill:#000000">3</tspan><tspan
             id="tspan12667"
             font-size="10"
             dy="-2.26"
             style="font-size:10px;font-family:Arial;fill:#000000">Na</tspan></text>
      </g>
      <g
         id="g12669">
        <path
           id="path12671"
           d="m 191.66,343.1 0,0 0.98,0 0.98,0 4.33,7.5 -0.74,0.42 -0.73,0.43 z"
           inkscape:connector-curvature="0"
           style="fill:#000000;fill-rule:evenodd;stroke:#000000;stroke-width:0;stroke-linejoin:miter;shape-rendering:geometricPrecision" />
      </g>
      <g
         id="g12673">
        <path
           id="path12675"
           d="m 187.76,263.24 0,0 -0.55,0.75 -0.98,0 -6.71,-11.62 0.49,-0.85 0.49,-0.85 z"
           inkscape:connector-curvature="0"
           style="fill:#000000;fill-rule:evenodd;stroke:#000000;stroke-width:0;stroke-linejoin:miter;shape-rendering:geometricPrecision" />
      </g>
      <g
         id="g12677">
        <path
           id="path12679"
           d="m 180.5,250.67 0,0 -0.49,0.85 -0.49,0.85 -13.42,0 -0.49,-0.85 0.49,-0.85 z"
           inkscape:connector-curvature="0"
           style="fill:#000000;fill-rule:evenodd;stroke:#000000;stroke-width:0;stroke-linejoin:miter;shape-rendering:geometricPrecision" />
        <line
           id="line12681"
           y2="255.77"
           x2="168.06"
           y1="255.77"
           x1="177.56"
           style="stroke:#000000;stroke-width:1.70000005;shape-rendering:auto" />
      </g>
      <g
         id="g12683">
        <path
           id="path12685"
           d="m 164.63,251.52 0,0 0.98,0 0.49,0.85 -6.71,11.62 -0.98,0 -0.98,0 z"
           inkscape:connector-curvature="0"
           style="fill:#000000;fill-rule:evenodd;stroke:#000000;stroke-width:0;stroke-linejoin:miter;shape-rendering:geometricPrecision" />
      </g>
      <g
         id="g12687">
        <path
           id="path12689"
           d="m 157.43,263.99 0,0 0.98,0 0.98,0 6.71,11.63 -0.49,0.85 -0.49,0.85 z"
           inkscape:connector-curvature="0"
           style="fill:#000000;fill-rule:evenodd;stroke:#000000;stroke-width:0;stroke-linejoin:miter;shape-rendering:geometricPrecision" />
        <line
           id="line12691"
           y2="272.22"
           x2="168.06"
           y1="263.98999"
           x1="163.32001"
           style="stroke:#000000;stroke-width:1.70000005;shape-rendering:auto" />
      </g>
      <g
         id="g12693">
        <path
           id="path12695"
           d="m 165.12,277.32 0,0 0.49,-0.85 0.49,-0.85 13.42,0 0.49,0.85 -0.38,0.85 z"
           inkscape:connector-curvature="0"
           style="fill:#000000;fill-rule:evenodd;stroke:#000000;stroke-width:0;stroke-linejoin:miter;shape-rendering:geometricPrecision" />
      </g>
      <g
         id="g12697">
        <text
           id="text12699"
           xml:space="preserve"
           style="text-anchor:end;text-rendering:geometricPrecision"><tspan
             id="tspan12701"
             font-size="10"
             y="242.95"
             x="161.74001"
             style="font-size:10px;font-family:Arial;fill:#000000">NaO</tspan><tspan
             id="tspan12703"
             font-size="7.5"
             dy="2.26"
             style="font-size:7.5px;font-family:Arial;fill:#000000">3</tspan><tspan
             id="tspan12705"
             font-size="10"
             dy="-2.26"
             style="font-size:10px;font-family:Arial;fill:#000000">S</tspan></text>
      </g>
      <g
         id="g12707">
        <path
           id="path12709"
           d="m 166.1,250.67 0,0 -0.49,0.85 -0.98,0 -3.94,-6.82 0.74,-0.42 0.73,-0.43 z"
           inkscape:connector-curvature="0"
           style="fill:#000000;fill-rule:evenodd;stroke:#000000;stroke-width:0;stroke-linejoin:miter;shape-rendering:geometricPrecision" />
      </g>
      <g
         id="g12711">
        <text
           id="text12713"
           xml:space="preserve"
           style="text-anchor:start;text-rendering:geometricPrecision"><tspan
             id="tspan12715"
             font-size="10"
             y="291.07001"
             x="311.78"
             style="font-size:10px;font-family:Arial;fill:#000000">N</tspan></text>
      </g>
      <g
         id="g12717">
        <path
           id="path12719"
           d="m 302.27,282.26 0,0 -0.05,-0.95 0.91,-0.53 8.36,3.73 -0.34,0.78 -0.35,0.77 z"
           inkscape:connector-curvature="0"
           style="fill:#000000;fill-rule:evenodd;stroke:#000000;stroke-width:0;stroke-linejoin:miter;shape-rendering:geometricPrecision" />
        <line
           id="line12721"
           y2="281.39999"
           x2="312.88"
           y1="278.67999"
           x1="306.76999"
           style="stroke:#000000;stroke-width:1.70000005;shape-rendering:auto" />
      </g>
      <g
         id="g12723">
        <path
           id="path12725"
           d="m 319.9,283.42 0,0 -0.64,-0.57 -0.63,-0.56 5.34,-5.93 1.04,0.11 0.38,0.85 z"
           inkscape:connector-curvature="0"
           style="fill:#000000;fill-rule:evenodd;stroke:#000000;stroke-width:0;stroke-linejoin:miter;shape-rendering:geometricPrecision" />
      </g>
      <g
         id="g12727">
        <path
           id="path12729"
           d="m 325.5,275.62 0,0 -0.49,0.85 -1.04,-0.11 -6.59,-11.41 0.43,-0.96 0.98,0 z"
           inkscape:connector-curvature="0"
           style="fill:#000000;fill-rule:evenodd;stroke:#000000;stroke-width:0;stroke-linejoin:miter;shape-rendering:geometricPrecision" />
        <line
           id="line12731"
           y2="263.98999"
           x2="322.72"
           y1="272.22"
           x1="327.45999"
           style="stroke:#000000;stroke-width:1.70000005;shape-rendering:auto" />
      </g>
      <g
         id="g12733">
        <path
           id="path12735"
           d="m 317.26,263.24 0,0 0.55,0.75 -0.43,0.96 -12.87,2.74 -0.78,-0.7 0.25,-0.92 z"
           inkscape:connector-curvature="0"
           style="fill:#000000;fill-rule:evenodd;stroke:#000000;stroke-width:0;stroke-linejoin:miter;shape-rendering:geometricPrecision" />
      </g>
      <g
         id="g12737">
        <path
           id="path12739"
           d="m 302.74,268.28 0,0 0.99,-1.29 0.78,0.7 -1.38,13.09 -0.91,0.53 -0.8,-0.52 z"
           inkscape:connector-curvature="0"
           style="fill:#000000;fill-rule:evenodd;stroke:#000000;stroke-width:0;stroke-linejoin:miter;shape-rendering:geometricPrecision" />
      </g>
      <g
         id="g12741">
        <path
           id="path12743"
           d="m 325.39,277.32 0,0 -0.38,-0.85 0.49,-0.85 13.42,0 0.49,0.85 0.49,0.85 z"
           inkscape:connector-curvature="0"
           style="fill:#000000;fill-rule:evenodd;stroke:#000000;stroke-width:0;stroke-linejoin:miter;shape-rendering:geometricPrecision" />
      </g>
      <g
         id="g12745">
        <path
           id="path12747"
           d="m 339.9,277.32 0,0 -0.49,-0.85 -0.49,-0.85 6.71,-11.63 0.98,0 0.98,0 z"
           inkscape:connector-curvature="0"
           style="fill:#000000;fill-rule:evenodd;stroke:#000000;stroke-width:0;stroke-linejoin:miter;shape-rendering:geometricPrecision" />
        <line
           id="line12749"
           y2="263.98999"
           x2="341.70001"
           y1="272.22"
           x1="336.95999"
           style="stroke:#000000;stroke-width:1.70000005;shape-rendering:auto" />
      </g>
      <g
         id="g12751">
        <path
           id="path12753"
           d="m 347.59,263.99 0,0 -0.98,0 -0.98,0 -6.71,-11.62 0.49,-0.85 0.98,0 z"
           inkscape:connector-curvature="0"
           style="fill:#000000;fill-rule:evenodd;stroke:#000000;stroke-width:0;stroke-linejoin:miter;shape-rendering:geometricPrecision" />
      </g>
      <g
         id="g12755">
        <path
           id="path12757"
           d="m 338.92,250.67 0,0 0.49,0.85 -0.49,0.85 -13.42,0 -0.49,-0.85 -0.49,-0.85 z"
           inkscape:connector-curvature="0"
           style="fill:#000000;fill-rule:evenodd;stroke:#000000;stroke-width:0;stroke-linejoin:miter;shape-rendering:geometricPrecision" />
        <line
           id="line12759"
           y2="255.77"
           x2="327.45999"
           y1="255.77"
           x1="336.95999"
           style="stroke:#000000;stroke-width:1.70000005;shape-rendering:auto" />
      </g>
      <g
         id="g12761">
        <path
           id="path12763"
           d="m 324.52,250.67 0,0 0.49,0.85 0.49,0.85 -6.71,11.62 -0.98,0 -0.55,-0.75 z"
           inkscape:connector-curvature="0"
           style="fill:#000000;fill-rule:evenodd;stroke:#000000;stroke-width:0;stroke-linejoin:miter;shape-rendering:geometricPrecision" />
      </g>
      <g
         id="g12765">
        <path
           id="path12767"
           d="m 315.63,292.43 0,0 0.83,-0.17 0.83,-0.18 1.98,9.31 -0.9,-0.14 -0.9,-0.14 z"
           inkscape:connector-curvature="0"
           style="fill:#000000;fill-rule:evenodd;stroke:#000000;stroke-width:0;stroke-linejoin:miter;shape-rendering:geometricPrecision" />
      </g>
      <g
         id="g12769">
        <path
           id="path12771"
           d="m 317.47,301.11 0,0 0.9,0.14 0.9,0.14 -7.12,12.33 -0.98,0 -0.98,0 z"
           inkscape:connector-curvature="0"
           style="fill:#000000;fill-rule:evenodd;stroke:#000000;stroke-width:0;stroke-linejoin:miter;shape-rendering:geometricPrecision" />
      </g>
      <g
         id="g12773">
        <path
           id="path12775"
           d="m 310.19,313.72 0,0 0.98,0 0.98,0 7.2,12.47 -0.98,0 -0.98,0 z"
           inkscape:connector-curvature="0"
           style="fill:#000000;fill-rule:evenodd;stroke:#000000;stroke-width:0;stroke-linejoin:miter;shape-rendering:geometricPrecision" />
      </g>
      <g
         id="g12777">
        <path
           id="path12779"
           d="m 317.39,326.19 0,0 0.98,0 0.98,0 -7.2,12.47 -0.98,0 -0.98,0 z"
           inkscape:connector-curvature="0"
           style="fill:#000000;fill-rule:evenodd;stroke:#000000;stroke-width:0;stroke-linejoin:miter;shape-rendering:geometricPrecision" />
      </g>
      <g
         id="g12781">
        <path
           id="path12783"
           d="m 310.19,338.66 0,0 0.98,0 0.98,0 7.2,12.48 -0.98,0 -0.98,0 z"
           inkscape:connector-curvature="0"
           style="fill:#000000;fill-rule:evenodd;stroke:#000000;stroke-width:0;stroke-linejoin:miter;shape-rendering:geometricPrecision" />
      </g>
      <g
         id="g12785">
        <text
           id="text12787"
           xml:space="preserve"
           style="text-anchor:end;text-rendering:geometricPrecision"><tspan
             id="tspan12789"
             font-size="10"
             y="367.51001"
             x="314.76999"
             style="font-size:10px;font-family:Arial;fill:#000000">NaO</tspan><tspan
             id="tspan12791"
             font-size="7.5"
             dy="2.26"
             style="font-size:7.5px;font-family:Arial;fill:#000000">2</tspan><tspan
             id="tspan12793"
             font-size="10"
             dy="-2.26"
             style="font-size:10px;font-family:Arial;fill:#000000">C</tspan></text>
      </g>
      <g
         id="g12795">
        <path
           id="path12797"
           d="m 317.39,351.14 0,0 0.98,0 0.98,0 -4.74,8.21 -0.73,-0.43 -0.74,-0.42 z"
           inkscape:connector-curvature="0"
           style="fill:#000000;fill-rule:evenodd;stroke:#000000;stroke-width:0;stroke-linejoin:miter;shape-rendering:geometricPrecision" />
      </g>
      <g
         id="Charge778">
        <circle
           id="circle12800"
           r="3.3333333"
           cy="287.17001"
           cx="326.20001"
           style="fill:none;stroke:#000000;stroke-width:1.36000001" />
        <line
           id="line12802"
           y2="287.17001"
           x2="328.72"
           y1="287.17001"
           x1="323.67999"
           style="stroke:#000000;stroke-width:1.36000001;shape-rendering:auto" />
        <line
           id="line12804"
           y2="289.69"
           x2="326.20001"
           y1="284.64999"
           x1="326.20001"
           style="stroke:#000000;stroke-width:1.36000001;shape-rendering:auto" />
      </g>
      <g
         id="g12806">
        <path
           id="path12808"
           d="m 303.98,266.07 0,0 -0.25,0.92 -1.6,-0.3 -9.68,-8.71 0.57,-0.63 0.57,-0.63 z"
           inkscape:connector-curvature="0"
           style="fill:#000000;fill-rule:evenodd;stroke:#000000;stroke-width:0;stroke-linejoin:miter;shape-rendering:geometricPrecision" />
      </g>
      <g
         id="g12810">
        <path
           id="path12812"
           d="m 302.13,266.69 0,0 1.6,0.3 -0.99,1.29 -12.16,4.66 -0.3,-0.79 -0.3,-0.79 z"
           inkscape:connector-curvature="0"
           style="fill:#000000;fill-rule:evenodd;stroke:#000000;stroke-width:0;stroke-linejoin:miter;shape-rendering:geometricPrecision" />
      </g>
      <g
         id="g12814">
        <text
           id="text12816"
           xml:space="preserve"
           style="text-anchor:start;text-rendering:geometricPrecision"><tspan
             id="tspan12818"
             font-size="10"
             y="242.95"
             x="343.29001"
             style="font-size:10px;font-family:Arial;fill:#000000">SO</tspan><tspan
             id="tspan12820"
             font-size="7.5"
             dy="2.26"
             style="font-size:7.5px;font-family:Arial;fill:#000000">3</tspan></text>
      </g>
      <g
         id="g12822">
        <path
           id="path12824"
           d="m 340.39,251.52 0,0 -0.98,0 -0.49,-0.85 3.94,-6.82 0.73,0.43 0.74,0.42 z"
           inkscape:connector-curvature="0"
           style="fill:#000000;fill-rule:evenodd;stroke:#000000;stroke-width:0;stroke-linejoin:miter;shape-rendering:geometricPrecision" />
      </g>
      <g
         id="Charge788">
        <circle
           id="circle12827"
           r="3.3333333"
           cy="228.24001"
           cx="353.85999"
           style="fill:none;stroke:#000000;stroke-width:1.36000001" />
        <line
           id="line12829"
           y2="228.24001"
           x2="356.38"
           y1="228.24001"
           x1="351.34"
           style="stroke:#000000;stroke-width:1.36000001;shape-rendering:auto" />
      </g>
      <g
         id="g12831">
        <path
           id="path12833"
           d="m 202.29,268.28 0,0 -0.99,-1.29 1.6,-0.3 12.14,4.67 -0.3,0.79 -0.3,0.79 z"
           inkscape:connector-curvature="0"
           style="fill:#000000;fill-rule:evenodd;stroke:#000000;stroke-width:0;stroke-linejoin:miter;shape-rendering:geometricPrecision" />
      </g>
    </g>
  </g>
</svg>
